1000
0 27.5647
0 59.4802 52.6587 47.2425
0 7.1901 13.7048 47.3389
0 21.1139 38.8273 47.4748
0 15.2865 25.6866 49.0542
0 0.397978 14.1323 35.7828
0 45.2414 25.37 19.7233
0 25.2533 55.5899 12.3997
0 48.3384 39.6569 31.682
0 30.1575 49.3592 43.7642
0 45.9783 24.1577 13.7432
0 55.3707 28.7428 18.5721
0 54.4339 43.2921 20.5085
0 59.5959 38.6136 45.0491
0 50.2535 2.88263 9.84468
0 6.83813 52.3593 20.1924
0 4.23439 68.7216 68.3712
0 22.094 65.1905 60.2815
0 61.4953 23.1678 36.5443
0 4.90495 30.3823 56.3664
0 64.0585 24.252 31.7943
0 26.3887 25.6961 31.941
0 47.3783 14.7137 43.3613
0 63.3726 54.6267 68.5359
0 33.1963 27.4456 14.1462
0 11.2842 44.2336 15.851
0 35.9101 60.3025 18.4437
0 24.5902 57.693 47.0045
0 49.9908 26.4503 61.3673
0 51.5515 43.4925 5.12313
0 17.1534 33.0127 18.0689
0 4.60907 7.12832 16.9468
0 41.068 40.9637 9.7001
0 20.1908 66.6075 54.4229
0 65.8202 21.1562 16.0519
0 45.1364 24.1718 1.78314
0 36.0024 49.2804 1.95802
0 49.3987 45.7199 28.4623
0 57.7854 68.7944 50.6701
0 1.74567 12.9223 21.1748
0 2.46247 10.3596 44.2528
0 6.74833 53.3295 1.30305
0 37.6799 14.9277 61.7676
0 30.5394 26.0938 33.9236
0 68.8875 49.2202 21.1917
0 40.268 15.6581 27.7389
0 42.5465 64.0448 1.23168
0 36.8107 48.1865 8.57567
0 48.0045 41.943 30.4585
0 12.9187 30.9433 18.7851
0 20.35 7.53388 12.7794
0 21.581 32.235 3.9735
0 47.4395 5.65039 14.9263
0 65.9673 5.1087 13.3611
0 8.67808 47.7811 52.7606
0 68.1963 52.1066 6.75262
0 41.643 37.8315 62.7576
0 3.37995 4.0779 56.5407
0 51.5134 24.8878 66.9155
0 49.3478 58.083 24.5186
0 59.8538 1.41918 17.6091
0 14.2629 62.5309 30.0085
0 45.7937 43.0154 13.3422
0 47.65 9.3807 12.751
0 33.8609 41.8805 14.3567
0 0.388241 45.9323 47.4646
0 14.5033 10.5661 34.2816
0 37.1583 49.416 28.0927
0 37.5572 57.8542 61.6531
0 23.0678 16.5528 1.35787
0 38.3934 9.24518 7.36308
0 66.6966 59.8569 18.3316
0 29.2535 48.9338 14.4905
0 0.540464 54.1629 1.83316
0 68.5347 32.0578 65.5706
0 58.9287 42.093 27.646
0 16.6465 59.3041 23.251
0 31.4778 56.3096 6.78665
0 46.6712 47.0046 6.29849
0 34.8216 63.2753 64.6674
0 47.5169 35.8885 6.07383
0 64.7948 54.3558 45.9509
0 62.8138 2.86152 45.5364
0 33.5725 1.88015 30.4918
0 12.7708 21.7229 36.1778
0 33.3114 48.9777 27.6871
0 41.0361 49.4809 6.84833
0 39.2541 1.35575 50.2952
0 43.9547 16.3619 9.78729
0 22.2109 28.6676 46.53
0 67.6465 57.696 18.685
0 14.2723 66.9079 5.34682
0 54.3829 46.4972 63.2229
0 22.5454 28.3836 61.2909
0 49.8695 42.0574 44.9162
0 33.9657 35.6368 55.8771
0 28.9259 62.3399 35.882
0 48.3391 68.0295 21.0041
0 10.536 41.3764 18.0561
0 53.242 52.312 16.411
0 9.43597 30.8609 15.1078
0 68.9862 31.533 16.4453
0 7.62041 44.0602 47.6463
0 16.8251 4.48717 24.9548
0 17.3129 8.26094 60.1647
0 10.5618 11.5831 21.9149
0 39.2343 52.1414 10.7922
0 47.4316 55.7642 32.3757
0 65.1538 46.5868 3.42301
0 68.999 60.6554 29.5372
0 28.0339 23.0421 11.5545
0 7.67051 54.1829 60.3727
0 58.6915 46.145 17.5283
0 57.0785 22.4998 21.3338
0 19.1872 50.4581 14.8526
0 42.7558 8.68176 30.6883
0 10.344 5.77578 6.87009
0 33.4511 7.74581 14.2105
0 47.1022 36.6646 10.5656
0 32.5107 52.3953 21.1931
0 12.2188 54.9649 17.6299
0 17.8251 65.2811 3.9404
0 53.4322 32.1003 5.43498
0 30.2041 16.2485 37.1363
0 32.4855 28.9329 47.1529
0 29.1011 35.184 31.4267
0 51.9296 47.5365 50.6115
0 46.8942 13.8228 30.6932
0 52.8347 15.6278 49.9617
0 27.8056 4.73119 3.02546
0 44.6348 43.5032 0.220908
0 12.09 39.8187 56.4486
0 54.5525 32.8649 25.2598
0 3.14914 58.9653 19.3642
0 9.74854 13.3301 2.9527
0 18.8944 54.0044 64.8109
0 64.9361 48.866 45.0574
0 18.6823 57.8652 52.0225
0 15.5911 51.907 59.9472
0 68.2791 28.8747 56.6611
0 33.8617 41.6711 61.3566
0 16.9085 19.1527 35.291
0 36.5038 60.2044 28.7817
0 34.001 40.6031 36.6147
0 8.97742 15.3912 5.14008
0 41.0492 38.6843 44.0471
0 55.1832 43.2359 49.1813
0 50.0298 7.95952 15.0001
0 9.2121 27.7353 41.3092
0 67.1535 68.2623 58.4956
0 52.0742 39.3416 56.4929
0 3.17759 36.9168 38.5145
0 6.94446 34.2878 51.8125
0 15.268 7.43872 10.4026
0 35.5353 52.9103 33.8611
0 66.9699 10.3262 5.30154
0 43.0388 46.3432 28.2457
0 45.5808 54.3307 34.9405
0 58.9889 31.4781 48.7227
0 54.5736 65.2046 47.527
0 49.5127 17.7451 61.4517
0 33.1191 30.9517 48.6779
0 5.29605 66.2158 19.203
0 19.7391 67.2549 54.7358
0 28.0923 46.8274 28.09
0 2.07385 35.8771 38.3594
0 27.489 5.70687 51.8875
0 65.4065 4.59988 35.8594
0 14.4998 59.7677 1.24711
0 45.5107 26.6355 34.1667
0 45.341 60.6773 0.836175
0 56.3191 62.6681 23.8155
0 42.5918 33.8762 37.9814
0 46.0503 40.5695 57.4448
0 6.70361 12.8023 27.3874
0 55.082 56.2678 21.8482
0 51.3504 41.623 38.1366
0 50.0848 6.77326 27.6046
0 7.38238 48.6054 21.0542
0 9.70742 3.94936 34.0347
0 13.1233 11.1401 12.9745
0 55.5743 33.4808 38.472
0 32.5633 1.02951 8.15347
0 39.0283 34.7832 58.4757
0 34.7523 40.2374 53.842
0 12.3836 11.0813 19.1852
0 39.292 33.5638 32.6677
0 57.5296 68.6674 33.2618
0 48.02 66.3378 63.6408
0 65.2874 14.6371 60.7891
0 44.9654 24.358 54.5735
0 20.7178 8.04993 40.2683
0 52.189 27.0112 46.5244
0 9.23121 1.38436 16.1665
0 9.39929 18.5501 40.2835
0 3.96939 48.6525 6.19667
0 59.4021 8.08845 20.3521
0 30.3035 28.2636 57.7888
0 1.36643 46.496 1.43968
0 30.8375 1.93468 26.3038
0 14.6646 8.35 23.1705
0 66.5064 47.6605 53.8575
0 1.96794 1.54577 56.0591
0 23.3634 64.4789 28.1041
0 25.6297 27.5054 19.2787
0 37.57 64.1794 62.6695
0 2.60041 36.206 5.51514
0 2.56028 64.958 29.5696
0 3.43332 38.0485 68.6032
0 4.31186 22.0066 34.9955
0 15.1294 41.6207 57.7814
0 38.2628 51.8861 12.0895
0 39.4018 15.6687 1.83239
0 42.289 43.7915 54.6181
0 43.7005 2.25954 23.7178
0 68.1036 41.815 59.1248
0 60.4031 18.4052 31.638
0 11.7402 66.6598 17.5234
0 37.3721 2.64477 31.397
0 1.08267 32.5179 22.4852
0 60.9858 10.5667 17.9417
0 44.4655 45.9704 53.5937
0 7.8621 45.6516 12.5218
0 29.9537 35.7335 43.9361
0 54.6262 10.3105 54.9187
0 20.4814 11.0134 3.43569
0 23.5577 51.4917 62.9775
0 10.3744 57.8894 2.81254
0 54.6549 44.526 57.0827
0 7.60468 38.9358 68.9304
0 60.663 30.5595 62.8332
0 66.8392 59.1541 11.0746
0 9.88694 36.5663 62.4744
0 25.3325 20.2756 24.4508
0 31.3107 40.8054 61.0727
0 66.2709 45.8258 8.49068
0 19.7531 4.73264 35.8993
0 33.0771 56.523 62.9244
0 62.5306 9.06393 39.3569
0 3.9327 45.1215 15.3238
0 47.0422 38.8798 64.7507
0 40.5127 64.105 12.1333
0 24.6072 0.239148 16.9411
0 44.2333 42.1544 27.9948
0 14.0419 32.5949 65.8065
0 52.3537 1.97266 54.4818
0 47.3548 68.2799 29.4365
0 61.1356 55.2856 41.9699
0 50.2536 0.838974 7.91675
0 34.3671 33.879 50.6857
0 30.6399 21.8545 46.2246
0 24.7434 34.6134 24.7074
0 0.267145 17.7375 50.4048
0 68.7525 33.8353 15.3464
0 43.0334 38.9198 55.2206
0 45.6384 55.5206 46.8649
0 20.6014 7.14836 66.9646
0 12.5934 60.1826 20.2454
0 28.6719 17.7879 5.53998
0 5.90229 66.333 2.51125
0 12.2748 37.1003 62.86
0 5.66502 42.3854 37.3124
0 66.0883 4.76776 34.6969
0 22.3204 6.78375 65.4426
0 58.7517 17.4113 20.7905
0 55.679 54.7583 56.0628
0 27.6669 60.5123 13.3515
0 26.4993 46.6289 8.09756
0 5.13047 42.0229 53.153
0 47.8223 2.96438 19.9349
0 23.2107 7.43448 2.24021
0 25.1589 29.784 58.8772
0 30.4163 55.4649 64.1113
0 63.0805 66.7108 53.3325
0 35.9399 58.673 15.5431
0 10.5262 39.0241 54.7109
0 42.5109 67.5075 6.6965
0 55.7069 48.6799 16.4775
0 36.2338 37.1207 14.3608
0 44.6683 41.9092 21.681
0 10.9274 44.7592 0.294045
0 31.5334 9.51973 44.9165
0 7.51457 42.3236 47.9704
0 66.4416 53.2915 32.2702
0 4.68275 64.4895 38.5609
0 18.6438 60.5663 55.4379
0 43.2633 31.9591 32.4747
0 13.4344 17.0202 20.3285
0 54.3215 63.4769 49.0338
0 5.72169 64.6083 33.7071
0 11.757 24.4459 49.7275
0 25.5195 19.378 18.691
0 32.326 44.5616 9.25986
0 2.54762 2.0107 53.6648
0 52.5635 18.1273 66.0332
0 54.6762 26.6111 67.9035
0 32.7517 22.298 20.3314
0 5.49737 4.45083 35.7388
0 7.46586 21.5437 27.1109
0 56.3423 16.6822 20.7178
0 42.3851 10.1654 17.6609
0 60.6951 52.1559 61.8787
0 43.5883 38.6591 7.27648
0 66.5354 29.2044 37.0746
0 5.94945 60.049 68.6226
0 66.9779 1.1252 9.49842
0 58.7981 4.39213 45.4895
0 56.5706 45.2669 34.6466
0 4.72978 45.8837 43.1138
0 2.7674 57.5062 53.0236
0 47.6481 43.4202 54.4563
0 45.6238 4.45007 44.2262
0 34.1792 58.0059 0.0887292
0 10.6439 59.6609 53.2135
0 58.6309 22.4763 55.28
0 28.3834 55.7476 49.499
0 27.1295 18.2726 3.45733
0 29.673 4.96052 27.1877
0 61.4091 29.33 8.03053
0 50.2578 63.1361 61.157
0 22.8112 22.9783 41.5487
0 55.9904 44.7643 24.9796
0 1.71825 51.7065 36.6544
0 61.8008 33.6404 29.7444
0 19.9483 36.9665 6.40892
0 26.0509 18.9438 0.291996
0 10.5605 40.0231 55.8096
0 41.0984 21.2016 29.1401
0 66.9334 26.9336 10.5459
0 15.8654 43.0589 27.7775
0 3.36056 37.6369 58.8286
0 44.4107 57.8058 59.5303
0 1.65871 54.1259 9.1945
0 63.7474 2.58647 26.4186
0 54.5665 31.7498 68.164
0 46.4936 15.2084 56.1337
0 4.33735 37.8938 42.066
0 27.1625 45.1008 4.62896
0 29.1882 15.4658 53.7827
0 15.5682 9.01197 25.329
0 35.5745 5.99507 46.7971
0 61.5755 52.7175 47.8064
0 0.0012094 12.1293 21.8251
0 64.1504 17.5214 21.4666
0 0.12188 43.7868 17.9825
0 40.1562 15.1743 23.1786
0 23.6016 55.3682 57.0673
0 3.64879 10.7899 53.4704
0 55.8658 45.2682 31.8111
0 0.297768 60.3197 26.4701
0 49.509 63.771 31.8185
0 12.8558 49.2419 26.7179
0 66.7251 40.6196 7.93548
0 35.3787 51.4653 16.3767
0 23.597 29.8723 45.5818
0 54.1188 11.6577 20.3142
0 59.9155 66.4513 36.8383
0 12.4047 41.4864 9.85604
0 64.663 55.5085 29.6606
0 2.78495 29.0975 63.7343
0 8.68733 56.2875 66.7656
0 49.4608 39.5366 16.7343
0 27.7581 27.9607 64.2068
0 39.6012 44.0318 15.1286
0 3.63261 6.34954 57.3714
0 5.16187 37.043 55.2403
0 35.3624 2.99727 43.4099
0 55.842 22.0004 4.71699
0 58.8842 41.6774 55.0427
0 34.5446 5.19309 54.5002
0 39.6443 66.3483 56.8472
0 28.0694 26.4065 67.6769
0 44.2101 7.1631 26.8938
0 22.558 20.3182 66.6929
0 8.0354 46.7723 23.908
0 56.486 21.2861 28.2268
0 7.28911 50.3516 33.2758
0 25.8672 30.847 56.1063
0 2.13617 2.12028 51.7001
0 40.7932 26.6905 61.7799
0 14.5164 24.5573 56.026
0 5.26547 40.9499 6.18843
0 19.1907 29.8274 64.0396
0 34.5904 20.7022 54.6371
0 52.4382 15.8429 36.2145
0 64.7189 40.767 53.4661
0 49.3754 14.9742 13.7211
0 19.413 63.0856 65.8187
0 47.1401 22.1728 26.5127
0 7.42777 56.9496 60.0942
0 56.9779 63.5708 46.8411
0 62.0402 56.159 1.61327
0 50.7276 43.0605 11.1361
0 14.5769 21.1205 59.9123
0 41.2972 18.9423 62.9008
0 60.2499 35.0401 0.834885
0 27.9747 31.0284 28.8918
0 30.4458 58.8086 8.15941
0 54.5858 45.9665 12.2345
0 65.3502 31.1729 29.7331
0 56.1239 36.616 52.4542
0 30.9149 27.3608 49.8156
0 26.6992 12.0096 9.3047
0 19.2992 2.92459 25.441
0 20.5701 47.3088 68.5095
0 12.3976 31.6504 53.3212
0 4.86335 59.744 2.59823
0 45.4067 47.608 33.7291
0 66.8297 62.5096 6.28803
0 11.1574 62.818 59.4384
0 21.2159 22.7522 6.00542
0 30.9661 18.6413 53.9878
0 10.0395 66.9477 14.5206
0 11.7122 42.2332 61.0699
0 45.8575 38.608 1.28365
0 66.783 56.8749 19.9073
0 33.7873 68.502 34.3063
0 24.2923 49.6204 17.9957
0 1.48332 32.7816 34.2397
0 42.8219 35.696 23.8195
0 56.6543 0.332976 25.4702
0 52.4031 5.14529 22.9768
0 13.1914 41.8015 16.2664
0 47.6987 7.51827 12.3746
0 47.5581 52.0259 26.3657
0 3.6691 49.7621 1.71954
0 55.0534 34.7392 40.8116
0 38.9366 36.7568 34.2839
0 39.0712 11.403 44.2828
0 13.1124 62.9228 22.3962
0 15.8985 34.6589 39.4861
0 47.5796 44.6987 53.3296
0 23.0412 58.5817 54.2713
0 26.2013 65.434 50.6116
0 16.774 3.44348 55.5631
0 44.6952 33.4573 33.8534
0 51.3744 12.8467 62.2294
0 1.46025 14.3031 57.1938
0 27.3513 13.4267 61.7445
0 38.9677 13.228 49.5876
0 39.4582 64.0976 52.6008
0 35.3953 65.3349 43.111
0 4.30806 14.9878 3.01218
0 3.13879 11.6785 9.27294
0 59.6459 49.4927 9.00546
0 38.5735 37.335 18.1546
0 3.33959 2.77583 37.3731
0 4.24589 68.1426 3.17844
0 47.2488 35.1773 0.823188
0 67.8494 63.535 62.0878
0 55.0294 46.7985 48.0758
0 38.3933 18.4713 15.2648
0 32.2489 18.7796 7.36591
0 68.4808 2.56341 62.7378
0 9.0229 15.5351 15.5898
0 54.8961 22.5511 4.06987
0 29.6397 1.79771 2.78638
0 27.3399 61.6068 27.5892
0 68.3311 24.7535 15.8743
0 42.3219 50.2 45.3095
0 3.82199 9.7263 32.563
0 10.0319 27.4871 2.40844
0 20.3244 35.7506 62.199
0 52.7604 34.8624 30.8298
0 42.4471 32.605 51.2984
0 53.2345 16.2397 50.6364
0 1.19173 45.7036 22.496
0 44.9795 0.606081 27.0127
0 46.3867 41.7081 57.2823
0 50.5682 35.3018 32.5518
0 4.13584 29.8651 0.0468861
0 55.9228 42.5422 15.2475
0 2.62273 3.6341 68.4865
0 41.902 28.7539 2.93021
0 0.212322 37.0342 19.783
0 41.8155 50.3909 2.03296
0 64.0623 53.7042 26.8839
0 28.7422 54.1771 7.45502
0 48.7598 8.14016 11.5397
0 66.1577 54.1838 54.8878
0 64.1871 36.2606 53.0349
0 4.56403 12.3131 31.2264
0 63.9085 40.5024 52.9535
0 30.7189 55.024 34.6208
0 66.6841 4.83044 62.2503
0 67.6882 18.6636 50.4084
0 16.8089 56.6035 17.6897
0 42.8135 23.2059 43.3066
0 7.11233 31.6854 54.8789
0 31.1524 31.1712 41.4611
0 28.6735 68.8979 44.5388
0 7.16151 10.855 20.7047
0 18.758 42.0584 15.6774
0 15.9125 2.34309 44.9917
0 34.1599 30.4838 51.1849
0 68.6631 4.4074 50.2884
0 26.5745 16.9331 9.35795
0 63.3318 39.2078 1.89738
0 24.6905 29.2013 13.5167
0 58.2906 44.2894 68.7123
0 51.4792 1.17703 10.5043
0 4.45633 15.9134 6.46015
0 35.7998 66.87 49.5055
0 30.067 17.1387 45.0356
0 55.6172 50.8548 52.675
0 40.6311 11.0707 61.9536
0 11.5909 43.1683 1.5552
0 19.2596 27.6297 50.5647
0 36.5111 32.8636 58.6039
0 42.7214 9.15963 17.1465
0 51.8122 26.7224 52.5434
0 22.3356 11.6633 7.84238
0 39.5973 16.5267 60.8116
0 6.81473 1.86167 31.1904
0 2.08994 39.5238 38.4915
0 6.73085 56.15 0.039926
0 12.0155 39.6689 59.541
0 37.9448 62.9655 56.4312
0 34.7517 0.620774 19.2431
0 62.9219 67.4057 53.5165
0 57.0224 13.378 43.6093
0 22.7634 62.9565 4.16714
0 11.6509 38.3765 36.6312
0 18.4599 5.84447 20.822
0 46.4028 24.4365 49.4065
0 14.2009 63.5563 8.90258
0 59.1075 18.6793 5.48279
0 26.5115 5.33741 1.46168
0 54.3322 49.869 21.9235
0 36.2144 5.1577 32.4482
0 11.2758 44.8646 65.2432
0 67.7147 65.6553 22.0601
0 4.01828 17.949 66.5207
0 65.8582 41.5024 33.8857
0 13.6142 28.443 0.752096
0 15.3144 3.32893 41.8896
0 3.38943 18.8655 16.3521
0 46.958 36.355 61.6986
0 60.3768 24.4337 47.3464
0 41.3976 17.4081 50.1638
0 63.4018 37.2041 45.9533
0 60.5146 66.4645 67.3157
0 33.2864 9.87174 6.41132
0 49.0425 37.6144 47.2656
0 29.4367 5.19852 41.1268
0 23.0464 61.0789 27.8284
0 29.3438 22.507 46.5953
0 24.5536 40.0073 67.3809
0 44.6371 20.4808 12.3261
0 12.4333 34.6362 17.1955
0 24.2964 28.4712 10.2894
0 64.3368 34.3051 36.5198
0 14.7875 25.9809 1.50004
0 22.8152 41.3823 14.8591
0 37.5852 59.2357 19.9198
0 14.5322 62.6511 11.7419
0 27.9006 1.72069 1.05055
0 38.9562 30.0031 2.24437
0 65.1082 11.8691 27.2954
0 5.61193 55.896 5.66163
0 7.13891 11.1294 16.616
0 49.4903 22.795 31.9998
0 53.4173 8.85358 19.5777
0 3.82029 5.63778 13.3312
0 61.9311 52.1225 21.8142
0 15.2266 8.62852 34.0349
0 36.6186 30.4918 21.2714
0 32.9278 68.6726 17.3375
0 14.4897 54.9448 37.8097
0 32.046 61.2536 30.5915
0 27.8662 13.7561 18.6321
0 21.4713 68.4026 21.2709
0 15.1265 51.5963 8.67681
0 38.4443 43.3966 1.63826
0 18.1587 31.0843 14.1105
0 4.85688 50.8452 52.6854
0 42.471 2.773 26.216
0 47.605 2.97642 27.6493
0 37.2059 51.2677 3.02432
0 18.8403 29.7176 37.3932
0 24.9811 13.1423 53.5818
0 7.18478 60.8553 39.1342
0 53.0406 36.1826 16.7164
0 5.40246 3.81062 6.42054
0 37.2571 32.4073 15.1173
0 30.0257 8.27664 28.4195
0 40.1868 46.9611 60.4347
0 41.8174 19.8773 57.4032
0 34.2451 38.7057 6.32271
0 20.9867 34.3164 40.2838
0 15.3121 57.2731 52.4434
0 13.0823 23.0648 1.93627
0 55.9807 49.4185 10.4941
0 37.7681 40.4622 9.04445
0 35.2449 52.7858 34.5953
0 57.6557 2.14056 64.7309
0 59.647 32.0413 56.904
0 36.251 27.8474 26.2784
0 53.4929 4.04756 47.2035
0 25.2486 6.41871 26.6357
0 65.1761 29.649 30.1257
0 60.0097 14.1076 20.8567
0 68.7454 13.2972 59.8593
0 67.8221 31.5511 65.2915
0 46.6788 43.6869 40.1848
0 61.3464 34.0238 33.8226
0 33.5924 22.4052 52.289
0 17.468 32.1244 50.4967
0 19.923 12.1719 51.7545
0 34.8197 22.4163 28.8338
0 38.6699 17.7801 28.9446
0 51.6589 9.42024 42.7501
0 1.42015 5.00074 7.8725
0 65.4309 56.05 30.5488
0 37.8053 1.24596 3.37796
0 51.1666 41.1291 30.7555
0 19.6706 42.8007 15.4808
0 27.3992 68.7467 32.6986
0 31.4446 40.5051 13.9055
0 8.06157 55.5957 46.5092
0 3.54566 25.751 60.3579
0 68.3387 36.8945 67.0025
0 20.8973 0.894041 22.5375
0 29.2075 38.949 63.2568
0 47.2043 10.058 41.543
0 6.97602 45.3612 68.1929
0 9.17555 25.6868 38.6185
0 12.2 25.0144 47.5617
0 14.6266 2.49553 12.564
0 9.44434 7.76034 7.41852
0 48.8997 64.7389 21.2223
0 17.6587 21.1426 36.3801
0 2.53373 29.1568 41.9927
0 30.8807 67.249 14.0337
0 63.4806 65.8903 15.3183
0 51.4276 10.6083 53.1572
0 44.361 26.7867 30.4195
0 62.6515 34.0309 31.2366
0 64.4394 14.2603 20.0129
0 15.4814 14.3072 4.6944
0 28.2564 49.9011 57.9224
0 50.379 54.9809 11.0628
0 46.1608 43.6248 0.952864
0 48.6429 14.1624 61.0062
0 50.2822 2.18983 22.321
0 49.165 43.7735 40.2679
0 26.1511 1.41292 17.7271
0 64.4741 25.5008 22.7443
0 48.6185 63.7891 59.8501
0 61.2899 62.3095 37.2995
0 55.9497 66.2995 2.78848
0 47.3381 42.1888 11.3722
0 42.5132 26.1432 8.20024
0 36.8471 36.0535 58.3785
0 60.032 35.3737 38.6265
0 30.1569 65.75 32.9932
0 40.1385 9.36818 67.0386
0 21.2163 42.6295 54.7524
0 66.248 25.6198 3.19053
0 34.0999 31.3968 13.2502
0 9.83936 15.4306 58.5194
0 35.6071 27.328 8.05771
0 17.649 7.33205 54.7267
0 61.8561 29.3591 18.8583
0 17.9254 0.278422 53.4423
0 2.78606 63.0349 55.4371
0 4.92731 36.6412 31.0608
0 52.8207 17.3745 12.6727
0 37.8731 17.9744 33.3577
0 12.2887 16.8983 60.4839
0 60.5999 32.5882 36.6118
0 21.3368 21.8717 59.9452
0 68.7483 4.8551 5.10293
0 26.4545 24.89 33.8309
0 61.9513 28.5577 40.4344
0 61.9304 52.8371 52.9838
0 55.4165 21.1457 39.5585
0 14.4693 29.1501 7.1024
0 60.3137 31.7028 11.4054
0 33.4305 61.915 21.0026
0 3.52576 28.3543 30.8746
0 20.7863 24.2038 32.2142
0 30.691 52.5185 52.525
0 30.1306 25.1656 16.6907
0 64.1576 37.3196 10.0262
0 64.6602 59.5647 48.7538
0 22.0839 12.8803 18.7047
0 15.1833 3.18805 28.0688
0 53.8728 42.0922 60.7981
0 47.5996 23.6822 1.67042
0 1.93403 41.5654 55.4483
0 12.6378 24.549 64.4447
0 44.6911 41.6991 55.7862
0 48.0023 51.3893 58.2628
0 37.6035 13.3429 0.968332
0 49.3126 65.2689 63.9248
0 55.5491 9.9086 48.1356
0 27.7432 46.4125 64.5063
0 24.2669 35.107 36.082
0 38.3906 62.9802 29.6667
0 43.8964 35.368 6.31107
0 16.1175 61.4887 14.2747
0 15.4754 3.64135 23.8687
0 35.6164 54.8885 29.9587
0 40.4803 12.4377 44.2187
0 44.8637 5.32833 42.6444
0 49.6321 55.4911 63.0469
0 42.1154 30.2235 58.4172
0 41.9609 68.8419 0.348245
0 48.154 23.0206 40.3289
0 5.28491 37.1706 46.4669
0 18.3768 21.0944 8.02147
0 57.4957 56.8667 11.3175
0 10.5272 31.5908 28.288
0 13.3159 22.5451 27.9458
0 42.0263 63.3395 62.4947
0 4.52839 53.1859 14.3519
0 30.1535 30.3649 38.6871
0 68.7469 7.39484 35.3638
0 44.4358 27.6006 41.6737
0 36.4447 59.4983 60.6905
0 46.8008 35.9684 34.0765
0 32.9475 16.9201 2.11087
0 44.3655 5.9848 28.6505
0 26.5669 39.5311 17.2572
0 44.0912 17.6183 47.1558
0 67.2591 67.3367 10.6765
0 55.5762 47.0221 21.5299
0 27.9719 28.306 28.1552
0 25.7621 6.49329 27.8382
0 35.6623 40.3665 28.3621
0 40.7909 44.612 25.3369
0 29.1382 33.408 43.6621
0 4.64223 25.7795 62.1579
0 39.8023 54.5069 19.3749
0 26.3632 52.3834 0.66989
0 24.9481 6.46588 27.019
0 62.6668 30.4094 11.8709
0 48.4072 31.3837 3.89595
0 7.19387 31.3426 62.7563
0 19.6869 16.4147 32.254
0 10.1029 40.103 67.4162
0 0.288328 29.3117 17.9812
0 44.1316 18.3344 49.904
0 44.5067 36.4834 16.4264
0 32.7113 66.9546 14.0349
0 20.6116 68.2938 62.7991
0 7.8342 30.278 49.1084
0 61.0035 28.1145 27.4733
0 50.5849 65.6744 50.6889
0 36.4757 44.6991 53.9363
0 2.52464 19.4573 22.7589
0 9.94302 43.368 16.9267
0 23.5964 15.0988 5.65437
0 53.7643 64.1828 58.7601
0 32.7291 29.4733 48.5753
0 44.9861 36.3449 36.2021
0 33.6235 13.2141 1.40118
0 42.6154 41.5442 42.8589
0 25.8238 23.7179 16.8331
0 56.4708 60.3536 55.2006
0 44.7288 50.8897 27.7398
0 8.46415 58.749 49.8231
0 53.5202 32.6615 54.7081
0 46.0179 61.4302 12.7127
0 2.809 9.92605 47.0717
0 50.1704 18.3915 34.5536
0 47.1736 55.3896 16.5586
0 43.7204 48.6778 33.5423
0 14.3599 57.3082 37.9044
0 42.3961 14.7257 19.5279
0 24.5117 46.4971 61.2984
0 68.4397 61.7014 6.38184
0 30.1351 34.6382 15.4668
0 14.7945 3.72494 65.9832
0 29.6434 56.2235 31.7234
0 13.297 0.555349 21.961
0 38.1536 66.1461 19.3017
0 36.7594 38.2402 46.9457
0 46.2728 39.0628 29.7663
0 26.252 57.9308 17.6737
0 7.4147 24.3285 49.0457
0 56.5779 31.5077 37.676
0 18.5228 61.8847 49.5055
0 38.3452 49.7742 2.78935
0 13.8298 11.6808 17.0385
0 17.2729 30.4491 31.391
0 33.7413 19.3568 20.322
0 47.6044 37.6956 67.2306
0 22.4242 41.7049 45.5794
0 53.784 66.988 28.1723
0 30.4087 25.4507 51.6688
0 2.3782 17.4212 35.8858
0 51.6016 50.851 44.7497
0 19.1733 64.5713 6.88995
0 29.7256 45.5734 65.275
0 50.0623 14.2521 5.3847
0 30.3471 42.9371 61.2652
0 35.6719 42.9201 53.9734
0 47.9318 22.5776 31.2503
0 6.3708 20.5684 6.37983
0 13.0172 65.2167 7.71412
0 6.68096 60.55 48.9656
0 65.559 55.6555 55.4256
0 53.8705 17.2247 3.62725
0 65.5305 62.1967 68.608
0 8.12398 26.8352 56.604
0 43.6779 54.3255 49.9829
0 12.9051 29.1232 58.5986
0 0.64823 46.6438 26.2246
0 47.3121 16.7899 5.82982
0 8.28721 5.83247 3.86023
0 15.0057 62.8115 48.8688
0 41.1827 27.1659 58.2523
0 33.8916 17.1063 25.6099
0 26.4097 29.7099 41.8596
0 24.8965 49.4741 25.6335
0 15.2841 7.3653 17.6844
0 24.6597 9.33018 47.56
0 36.2316 27.6104 34.0302
0 37.1086 39.4829 26.0873
0 65.5729 20.3762 11.0573
0 38.9699 57.7886 11.6498
0 43.373 21.9143 51.5629
0 39.5363 1.85663 56.7055
0 11.9341 34.8131 12.1948
0 51.902 64.5621 59.539
0 52.0378 29.7541 67.8
0 24.5676 10.1752 68.6621
0 39.8032 44.9065 27.9592
0 21.0036 38.3882 54.7604
0 29.4135 42.891 49.6126
0 42.5616 24.2211 54.3602
0 42.7311 29.854 62.2547
0 12.3026 22.6569 56.4932
0 33.647 36.1585 60.8613
0 62.1135 47.6907 38.2016
0 49.3515 51.0949 41.1529
0 15.8025 63.7835 54.0995
0 0.978513 25.8382 42.9664
0 43.0057 40.4475 33.1363
0 1.8457 65.1311 60.1856
0 64.936 57.6807 12.521
0 18.0272 29.9355 5.35513
0 12.6004 2.02588 27.7894
0 26.1854 24.4293 67.5615
0 56.1103 31.5612 45.0156
0 24.0092 63.4895 48.1389
0 61.326 64.5554 36.7405
0 9.14122 18.8826 35.5125
0 10.3215 45.8177 45.9802
0 26.025 30.9118 26.5392
0 67.9933 1.12237 22.9915
0 52.5272 0.152358 65.5985
0 34.4268 36.6045 51.3645
0 59.7542 12.4057 0.487888
0 7.88558 32.5303 38.2677
0 45.9655 0.998237 8.12407
0 1.90233 38.4309 47.738
0 61.6393 24.5106 21.7797
0 12.2442 1.20782 14.149
0 46.9908 46.8732 40.731
0 65.4884 49.0102 54.6425
0 46.3354 18.7349 40.0864
0 66.9242 26.3344 42.6293
0 33.9374 49.478 32.1499
0 0.684335 15.9384 31.0167
0 57.4768 51.9788 38.5972
0 13.06 37.384 49.863
0 1.63621 45.1286 9.57458
0 2.91631 52.6373 59.8945
0 26.1415 55.0713 54.2092
0 26.1036 33.9082 20.0558
0 60.0374 51.8103 64.4104
0 13.549 52.3285 43.307
0 60.9045 47.8587 0.494925
0 67.3127 15.7209 61.4262
0 10.7959 14.055 33.3802
0 10.2784 5.71874 34.5401
0 66.61 16.0474 38.8507
0 5.66935 57.7096 1.31797
0 47.9693 29.2582 21.5993
0 6.94046 7.43699 19.6732
0 5.07063 24.1345 66.6248
0 12.7986 3.9624 50.3523
0 52.5695 67.0437 47.2203
0 33.8353 55.5008 63.0063
0 1.94736 40.9291 8.14368
0 54.5335 23.6977 9.03894
0 21.4515 49.1484 46.4728
0 31.1074 50.7129 51.952
0 1.52919 10.6652 8.56276
0 36.931 45.5778 47.7543
0 55.4749 20.7219 41.1401
0 20.8835 25.4377 55.0822
0 64.3271 17.3678 49.6911
0 1.17046 16.4744 37.2671
0 60.1553 0.688145 49.4861
0 22.7519 31.876 27.5233
0 28.4905 64.1262 18.3443
0 30.8011 31.973 19.8565
0 35.5974 29.2734 58.0282
0 37.3719 16.4742 28.0987
0 24.2047 52.7189 18.6231
0 53.5841 33.6406 31.746
0 15.0711 57.011 12.879
0 59.8108 65.6692 60.5678
0 41.5228 16.6546 13.4715
0 26.5842 18.4411 54.305
0 30.5571 0.0268431 62.2222
0 32.5623 13.5784 26.3144
0 14.2706 46.4066 25.3377
0 61.264 14.8955 31.3732
0 31.9371 64.9327 11.6641
0 3.70098 65.9267 41.5669
0 27.9731 13.7996 25.4859
0 41.5106 6.02631 33.1572
0 50.0494 22.5979 8.797
0 20.3183 57.3243 15.7579
0 55.3904 9.05225 13.9386
0 4.56435 55.0298 6.05903
0 36.9223 3.31611 26.0568
0 50.2648 41.5603 6.47689
0 61.7628 35.99 51.1374
0 28.7237 4.35654 16.1114
0 1.35759 56.0416 28.6367
0 28.5994 7.98915 22.1952
0 44.5622 2.87717 59.4641
0 36.9769 33.0474 7.1762
0 37.4034 55.2373 18.5425
0 48.6311 4.85692 41.2622
0 61.8995 11.9395 60.1919
0 19.3311 1.01168 36.0683
0 61.1774 4.89644 14.7559
0 54.6436 56.1082 44.4493
0 12.274 18.3223 56.555
0 21.9465 0.866248 29.0006
0 45.2036 15.3769 9.34387
0 7.38999 58.1958 56.6421
0 8.9528 3.03117 5.40564
0 65.198 68.5101 15.9189
0 67.4775 50.6152 22.1023
0 6.19411 30.0701 36.3961
0 9.14137 51.7832 29.8372
0 63.2855 35.7075 29.8384
0 25.3221 12.3332 43.3601
0 14.3964 13.5893 4.5405
0 55.4839 1.28044 68.2605
0 39.4801 57.7286 34.5394
0 7.63391 35.1623 43.7658
0 21.0468 67.3248 44.8126
0 64.1879 27.7153 38.8414
0 29.0993 38.589 56.2761
0 16.302 51.9722 66.4147
0 10.5211 44.1459 58.7312
0 58.5183 55.0158 11.7367
0 65.8828 17.8464 0.293942
0 35.7258 19.3636 12.4304
0 52.861 23.4419 37.9671
0 18.8976 11.5316 56.1304
0 60.5976 12.1914 59.0463
0 11.8771 19.4666 25.8329
0 42.7833 37.1451 53.7373
0 10.4627 35.6463 3.85884
0 26.3055 3.26928 26.2724
0 58.97 12.4819 39.6317
0 47.8745 45.0037 25.145
0 14.8265 47.5019 34.9791
0 56.4012 0.36175 61.6539
0 61.8352 4.3761 0.393633
0 65.1288 49.9856 55.4191
0 43.0572 14.9391 49.3134
0 33.419 66.2353 58.8599
0 27.5367 15.3041 43.6601
0 17.4212 5.01081 46.9165
0 53.45 19.3415 25.3675
0 67.038 55.5005 45.4597
0 59.9365 2.43817 55.8723
0 48.8536 37.4864 41.4668
0 45.2031 62.5271 8.13704
0 36.9347 56.3173 27.102
0 38.2346 49.1828 68.7182
0 21.364 44.9944 27.2394
0 46.8843 67.5072 38.7359
0 21.6402 59.9093 30.9319
0 52.1203 26.5161 30.9135
0 43.0312 17.4091 14.2937
0 5.33825 35.3809 15.9032
0 57.3467 24.6673 31.4274
0 4.23023 10.6036 57.5154
0 19.8208 24.6402 27.64
0 63.8136 55.3413 58.5741
0 66.4695 40.5422 28.746
0 46.8507 21.395 10.5219
0 7.16558 60.1428 36.5628
0 41.5371 51.5345 62.8369
0 48.0912 59.5838 20.6134
0 55.2159 3.28246 0.90195
0 63.9854 33.8022 65.4189
0 0.689182 41.6979 57.6193
0 22.8772 3.83738 11.3448
